DDS/out.vcd
$date
	Mon Aug 19 09:42:11 2019
$end
$version
	Icarus Verilog
$end
$timescale
	1s
$end
$scope module top_tb $end
$var wire 1 ! v $end
$var wire 1 " ss $end
$var wire 1 # sck $end
$var wire 1 $ mosi $end
$var wire 1 % R $end
$var wire 1 & G $end
$var wire 8 ' C [7:0] $end
$var wire 1 ( B $end
$var reg 1 ) CLK $end
$var reg 4 * S [3:0] $end
$var reg 1 + miso $end
$scope module top_test $end
$var wire 1 ) CLK $end
$var wire 4 , S [3:0] $end
$var wire 1 + miso $end
$var wire 1 - wen_w $end
$var wire 1 . wen $end
$var wire 16 / wdata [15:0] $end
$var wire 1 ! v $end
$var wire 1 " ss $end
$var wire 1 # sck $end
$var wire 1 $ mosi $end
$var wire 16 0 dout [15:0] $end
$var wire 1 1 busy $end
$var wire 16 2 addr_w [15:0] $end
$var wire 16 3 addr_r [15:0] $end
$var wire 16 4 addr [15:0] $end
$var wire 1 % R $end
$var wire 1 & G $end
$var wire 8 5 C [7:0] $end
$var wire 1 ( B $end
$var reg 32 6 count [31:0] $end
$var reg 1 7 rst $end
$scope module F2SRAM $end
$var wire 1 ) clk $end
$var wire 1 ! d $end
$var wire 1 + miso $end
$var wire 1 7 rst $end
$var wire 1 8 start $end
$var wire 1 " ss $end
$var wire 1 9 spi_valid $end
$var wire 1 : spi_rdy $end
$var wire 8 ; spi_data [7:0] $end
$var wire 1 # sck $end
$var wire 1 $ mosi $end
$var reg 16 < addr [15:0] $end
$var reg 1 1 busy $end
$var reg 8 = f_byte [7:0] $end
$var reg 1 > laststart $end
$var reg 16 ? poscount [15:0] $end
$var reg 1 @ second $end
$var reg 24 A spi_addr [23:0] $end
$var reg 1 B spi_go $end
$var reg 17 C spi_len [16:0] $end
$var reg 16 D wdata [15:0] $end
$var reg 1 - wen $end
$scope module SPI_READER $end
$var wire 24 E addr [23:0] $end
$var wire 1 ) clk $end
$var wire 1 B go $end
$var wire 1 F io_clk $end
$var wire 1 G io_cs_n $end
$var wire 17 H len [16:0] $end
$var wire 1 : rdy $end
$var wire 1 7 rst $end
$var wire 1 + spi_miso $end
$var wire 1 9 valid $end
$var wire 1 $ spi_mosi $end
$var wire 1 " spi_cs_n $end
$var wire 1 # spi_clk $end
$var wire 1 I io_mosi $end
$var wire 1 J io_miso $end
$var wire 8 K data [7:0] $end
$var wire 1 L cnt_len_last $end
$var wire 1 M cnt_cmd_last $end
$var reg 3 N cnt_bit [2:0] $end
$var reg 1 O cnt_bit_last $end
$var reg 2 P cnt_cmd [1:0] $end
$var reg 18 Q cnt_len [17:0] $end
$var reg 2 R fsm_state [1:0] $end
$var reg 2 S fsm_state_next [1:0] $end
$var reg 1 T rdy_i $end
$var reg 32 U shift_reg [31:0] $end
$var reg 1 9 valid_i $end
$scope module iob_clk_I $end
$var wire 1 V CLOCK_ENABLE $end
$var wire 1 W D_IN_0 $end
$var wire 1 X D_IN_1 $end
$var wire 1 F D_OUT_0 $end
$var wire 1 Y D_OUT_1 $end
$var wire 1 Z INPUT_CLK $end
$var wire 1 [ LATCH_INPUT_VALUE $end
$var wire 1 ) OUTPUT_CLK $end
$var wire 1 \ OUTPUT_ENABLE $end
$var wire 1 ] clken_pulled $end
$var wire 1 # PACKAGE_PIN $end
$var reg 1 ^ clken_pulled_ri $end
$var reg 1 _ clken_pulled_ro $end
$var reg 1 ` din_0 $end
$var reg 1 a din_1 $end
$var reg 1 b din_q_0 $end
$var reg 1 c din_q_1 $end
$var reg 1 d dout $end
$var reg 1 e dout_q_0 $end
$var reg 1 f dout_q_1 $end
$var reg 1 g outclk_delayed_1 $end
$var reg 1 h outclk_delayed_2 $end
$var reg 1 i outena_q $end
$scope begin genblk1 $end
$upscope $end
$scope begin genblk3 $end
$upscope $end
$upscope $end
$scope module iob_cs_n_I $end
$var wire 1 j CLOCK_ENABLE $end
$var wire 1 k D_IN_0 $end
$var wire 1 l D_IN_1 $end
$var wire 1 G D_OUT_0 $end
$var wire 1 G D_OUT_1 $end
$var wire 1 m INPUT_CLK $end
$var wire 1 n LATCH_INPUT_VALUE $end
$var wire 1 ) OUTPUT_CLK $end
$var wire 1 o OUTPUT_ENABLE $end
$var wire 1 p clken_pulled $end
$var wire 1 " PACKAGE_PIN $end
$var reg 1 q clken_pulled_ri $end
$var reg 1 r clken_pulled_ro $end
$var reg 1 s din_0 $end
$var reg 1 t din_1 $end
$var reg 1 u din_q_0 $end
$var reg 1 v din_q_1 $end
$var reg 1 w dout $end
$var reg 1 x dout_q_0 $end
$var reg 1 y dout_q_1 $end
$var reg 1 z outclk_delayed_1 $end
$var reg 1 { outclk_delayed_2 $end
$var reg 1 | outena_q $end
$scope begin genblk1 $end
$upscope $end
$scope begin genblk3 $end
$upscope $end
$upscope $end
$scope module iob_miso_I $end
$var wire 1 } CLOCK_ENABLE $end
$var wire 1 ~ D_IN_1 $end
$var wire 1 !" D_OUT_0 $end
$var wire 1 "" D_OUT_1 $end
$var wire 1 ) INPUT_CLK $end
$var wire 1 #" LATCH_INPUT_VALUE $end
$var wire 1 $" OUTPUT_CLK $end
$var wire 1 %" OUTPUT_ENABLE $end
$var wire 1 + PACKAGE_PIN $end
$var wire 1 &" clken_pulled $end
$var wire 1 J D_IN_0 $end
$var reg 1 '" clken_pulled_ri $end
$var reg 1 (" clken_pulled_ro $end
$var reg 1 J din_0 $end
$var reg 1 )" din_1 $end
$var reg 1 *" din_q_0 $end
$var reg 1 +" din_q_1 $end
$var reg 1 ," dout $end
$var reg 1 -" dout_q_0 $end
$var reg 1 ." dout_q_1 $end
$var reg 1 /" outclk_delayed_1 $end
$var reg 1 0" outclk_delayed_2 $end
$var reg 1 1" outena_q $end
$scope begin genblk1 $end
$upscope $end
$upscope $end
$scope module iob_mosi_I $end
$var wire 1 2" CLOCK_ENABLE $end
$var wire 1 3" D_IN_0 $end
$var wire 1 4" D_IN_1 $end
$var wire 1 I D_OUT_0 $end
$var wire 1 I D_OUT_1 $end
$var wire 1 5" INPUT_CLK $end
$var wire 1 6" LATCH_INPUT_VALUE $end
$var wire 1 ) OUTPUT_CLK $end
$var wire 1 7" OUTPUT_ENABLE $end
$var wire 1 8" clken_pulled $end
$var wire 1 $ PACKAGE_PIN $end
$var reg 1 9" clken_pulled_ri $end
$var reg 1 :" clken_pulled_ro $end
$var reg 1 ;" din_0 $end
$var reg 1 <" din_1 $end
$var reg 1 =" din_q_0 $end
$var reg 1 >" din_q_1 $end
$var reg 1 ?" dout $end
$var reg 1 @" dout_q_0 $end
$var reg 1 A" dout_q_1 $end
$var reg 1 B" outclk_delayed_1 $end
$var reg 1 C" outclk_delayed_2 $end
$var reg 1 D" outena_q $end
$scope begin genblk1 $end
$upscope $end
$scope begin genblk3 $end
$upscope $end
$upscope $end
$upscope $end
$upscope $end
$scope module SRAM $end
$var wire 16 E" addr [15:0] $end
$var wire 1 ) clk $end
$var wire 16 F" wdata [15:0] $end
$var wire 1 . wen $end
$var wire 16 G" rdata_3 [15:0] $end
$var wire 16 H" rdata_2 [15:0] $end
$var wire 16 I" rdata_1 [15:0] $end
$var wire 16 J" rdata_0 [15:0] $end
$var wire 16 K" rdata [15:0] $end
$scope module ram00 $end
$var wire 14 L" ADDRESS [13:0] $end
$var wire 1 M" CHIPSELECT $end
$var wire 1 ) CLOCK $end
$var wire 16 N" DATAIN [15:0] $end
$var wire 4 O" MASKWREN [3:0] $end
$var wire 1 P" POWEROFF $end
$var wire 1 Q" SLEEP $end
$var wire 1 R" STANDBY $end
$var wire 1 . WREN $end
$var wire 1 S" off $end
$var reg 16 T" DATAOUT [15:0] $end
$var integer 32 U" i [31:0] $end
$upscope $end
$scope module ram01 $end
$var wire 14 V" ADDRESS [13:0] $end
$var wire 1 W" CHIPSELECT $end
$var wire 1 ) CLOCK $end
$var wire 16 X" DATAIN [15:0] $end
$var wire 4 Y" MASKWREN [3:0] $end
$var wire 1 Z" POWEROFF $end
$var wire 1 [" SLEEP $end
$var wire 1 \" STANDBY $end
$var wire 1 . WREN $end
$var wire 1 ]" off $end
$var reg 16 ^" DATAOUT [15:0] $end
$var integer 32 _" i [31:0] $end
$upscope $end
$scope module ram10 $end
$var wire 14 `" ADDRESS [13:0] $end
$var wire 1 a" CHIPSELECT $end
$var wire 1 ) CLOCK $end
$var wire 16 b" DATAIN [15:0] $end
$var wire 4 c" MASKWREN [3:0] $end
$var wire 1 d" POWEROFF $end
$var wire 1 e" SLEEP $end
$var wire 1 f" STANDBY $end
$var wire 1 . WREN $end
$var wire 1 g" off $end
$var reg 16 h" DATAOUT [15:0] $end
$var integer 32 i" i [31:0] $end
$upscope $end
$scope module ram11 $end
$var wire 14 j" ADDRESS [13:0] $end
$var wire 1 k" CHIPSELECT $end
$var wire 1 ) CLOCK $end
$var wire 16 l" DATAIN [15:0] $end
$var wire 4 m" MASKWREN [3:0] $end
$var wire 1 n" POWEROFF $end
$var wire 1 o" SLEEP $end
$var wire 1 p" STANDBY $end
$var wire 1 . WREN $end
$var wire 1 q" off $end
$var reg 16 r" DATAOUT [15:0] $end
$var integer 32 s" i [31:0] $end
$upscope $end
$upscope $end
$upscope $end
$upscope $end
$enddefinitions $end
#0
$dumpvars
bx s"
bx r"
0q"
0p"
0o"
1n"
b1111 m"
b0 l"
0k"
b0 j"
bx i"
bx h"
0g"
0f"
0e"
1d"
b1111 c"
b0 b"
0a"
b0 `"
bx _"
bx ^"
0]"
0\"
0["
1Z"
b1111 Y"
b0 X"
0W"
b0 V"
bx U"
bx T"
0S"
0R"
0Q"
1P"
b1111 O"
b0 N"
1M"
b0 L"
bx K"
bx J"
bx I"
bx H"
bx G"
b0 F"
b0 E"
xD"
0C"
0B"
xA"
x@"
x?"
x>"
x="
x<"
x;"
x:"
x9"
18"
z7"
z6"
z5"
x4"
x3"
12"
x1"
z0"
z/"
x."
x-"
x,"
x+"
x*"
x)"
x("
x'"
1&"
z%"
z$"
z#"
z""
z!"
x~
1}
x|
0{
0z
xy
xx
xw
xv
xu
xt
xs
xr
xq
1p
zo
zn
zm
xl
xk
1j
xi
0h
0g
xf
xe
xd
xc
xb
xa
x`
x_
x^
1]
z\
z[
zZ
0Y
xX
xW
1V
bx U
xT
bx S
bx R
bx Q
bx P
xO
bx N
xM
xL
bx K
xJ
0I
b11111111111111111 H
1G
0F
b0 E
b0 D
b11111111111111111 C
0B
b0 A
0@
b0 ?
0>
bx =
b0 <
bx ;
x:
x9
08
07
b0 6
bx 5
b0 4
b0 3
b0 2
01
bx 0
b0 /
0.
0-
b0 ,
0+
b0 *
0)
1(
bx '
1&
1%
x$
x#
x"
x!
$end
#1
03"
0;"
1k
1s
0W
0`
0$
0?"
1"
1w
0#
0d
1C"
1{
1h
0J
b0 S
b0 ;
b0 K
1B"
1z
1g
1:"
0@"
zD"
1'"
0*"
1r
1x
z|
1_
0e
zi
b0 R
b10101011000000000000000000000000 U
b0 N
0:
0T
b1 6
17
1)
#2
0h
0{
0C"
0~
0)"
0g
0z
0B"
0f
1y
0+"
0A"
0)
#3
1C"
1{
1h
1B"
1z
1g
b10 6
0!
09
1:
1T
b1010110000000000000000000000000 U
1)
#4
0h
0{
0C"
0g
0z
0B"
0)
#5
1C"
1{
1h
1B"
1z
1g
b10101100000000000000000000000000 U
b11 6
1)
#6
0h
0{
0C"
0g
0z
0B"
0)
#7
1C"
1{
1h
1B"
1z
1g
b100 6
b1011000000000000000000000000000 U
1)
#8
0h
0{
0C"
0g
0z
0B"
0)
#9
1C"
1{
1h
1B"
1z
1g
b10110000000000000000000000000000 U
b101 6
1)
#10
0h
0{
0C"
0g
0z
0B"
0&
0(
18
0)
b11 *
b11 ,
#11
1C"
1{
1h
0M"
1k"
b11111111111111 L"
b11111111111111 V"
b11111111111111 `"
b11111111111111 j"
b1111111111111111 4
b1111111111111111 E"
0%
b1 S
1B"
1z
1g
b110 6
b1111111111111111 2
b1111111111111111 <
1B
b100000000000000000000 A
b100000000000000000000 E
11
1>
b1100000000000000000000000000000 U
1)
#12
0h
0{
0C"
0g
0z
0B"
0)
#13
1C"
1{
1h
0G
1F
0L
1B"
1z
1g
b1 R
b1011000100000000000000000000 U
0O
0M
b0 P
b11111111111111110 Q
0:
0T
0B
b111 6
1)
#14
0k
0s
0"
0w
0h
0{
0C"
0g
0z
0B"
0y
0)
#15
1W
1`
1#
1d
1C"
1{
1h
1B"
1z
1g
b1000 6
b1 N
b10110001000000000000000000000 U
1e
0x
1)
#16
0W
0`
0#
0d
0h
0{
0C"
0g
0z
0B"
0)
#17
1W
1`
1#
1d
1C"
1{
1h
1B"
1z
1g
b101100010000000000000000000000 U
b10 N
b1001 6
1)
#18
0W
0`
0#
0d
0h
0{
0C"
0g
0z
0B"
0)
#19
1W
1`
1#
1d
1C"
1{
1h
1B"
1z
1g
b1010 6
b11 N
b1011000100000000000000000000000 U
1)
#20
0W
0`
0#
0d
0h
0{
0C"
0g
0z
0B"
0)
#21
1W
1`
1#
1d
1C"
1{
1h
1I
1B"
1z
1g
b10110001000000000000000000000000 U
b100 N
b1011 6
1)
#22
0W
0`
13"
1;"
0#
0d
1$
1?"
0h
0{
0C"
0g
0z
0B"
1A"
0)
#23
1W
1`
1#
1d
1C"
1{
1h
0I
1B"
1z
1g
b1100 6
b101 N
b1100010000000000000000000000000 U
1@"
1)
#24
0W
0`
03"
0;"
0#
0d
0$
0?"
0h
0{
0C"
0g
0z
0B"
0A"
0)
#25
1W
1`
1#
1d
1C"
1{
1h
1I
1B"
1z
1g
0@"
b11000100000000000000000000000000 U
b110 N
b1101 6
1)
#26
0W
0`
13"
1;"
0#
0d
1$
1?"
0h
0{
0C"
0g
0z
0B"
1A"
0)
#27
1W
1`
1#
1d
1C"
1{
1h
1B"
1z
1g
b1110 6
1O
b111 N
b10001000000000000000000000000000 U
1@"
1)
#28
0W
0`
0#
0d
0h
0{
0C"
0g
0z
0B"
0)
#29
1W
1`
1#
1d
1C"
1{
1h
0I
1B"
1z
1g
b10000000000000000000000000000 U
0O
b0 N
b1 P
b1111 6
1)
#30
0W
0`
03"
0;"
0#
0d
0$
0?"
0h
0{
0C"
0g
0z
0B"
0A"
0)
#31
1W
1`
1#
1d
1C"
1{
1h
1B"
1z
1g
b10000 6
b1 N
b100000000000000000000000000000 U
0@"
1)
#32
0W
0`
0#
0d
0h
0{
0C"
0g
0z
0B"
0)
#33
1W
1`
1#
1d
1C"
1{
1h
1B"
1z
1g
b1000000000000000000000000000000 U
b10 N
b10001 6
1)
#34
0W
0`
0#
0d
0h
0{
0C"
0g
0z
0B"
0)
#35
1W
1`
1#
1d
1C"
1{
1h
1I
1B"
1z
1g
b10010 6
b11 N
b10000000000000000000000000000000 U
1)
#36
0W
0`
13"
1;"
0#
0d
1$
1?"
0h
0{
0C"
0g
0z
0B"
1A"
0)
#37
1W
1`
1#
1d
1C"
1{
1h
0I
1B"
1z
1g
1@"
b0 U
b100 N
b10011 6
1)
#38
0W
0`
03"
0;"
0#
0d
0$
0?"
0h
0{
0C"
0g
0z
0B"
0A"
0)
#39
1W
1`
1#
1d
1C"
1{
1h
1B"
1z
1g
b10100 6
b101 N
0@"
1)
#40
0W
0`
0#
0d
0h
0{
0C"
0g
0z
0B"
0)
#41
1W
1`
1#
1d
1C"
1{
1h
1B"
1z
1g
b110 N
b10101 6
1)
#42
0W
0`
0#
0d
0h
0{
0C"
0g
0z
0B"
0)
#43
1W
1`
1#
1d
1C"
1{
1h
1B"
1z
1g
b10110 6
1O
b111 N
1)
#44
0W
0`
0#
0d
0h
0{
0C"
0g
0z
0B"
0)
#45
1W
1`
1#
1d
1C"
1{
1h
1B"
1z
1g
0O
b0 N
b10 P
b10111 6
1)
#46
0W
0`
0#
0d
0h
0{
0C"
0g
0z
0B"
0)
#47
1W
1`
1#
1d
1C"
1{
1h
1B"
1z
1g
b11000 6
b1 N
1)
#48
0W
0`
0#
0d
0h
0{
0C"
0g
0z
0B"
0)
#49
1W
1`
1#
1d
1C"
1{
1h
1B"
1z
1g
b10 N
b11001 6
1)
#50
0W
0`
0#
0d
0h
0{
0C"
0g
0z
0B"
0)
#51
1W
1`
1#
1d
1C"
1{
1h
1B"
1z
1g
b11010 6
b11 N
1)
#52
0W
0`
0#
0d
0h
0{
0C"
0g
0z
0B"
0)
#53
1W
1`
1#
1d
1C"
1{
1h
1B"
1z
1g
b100 N
b11011 6
1)
#54
0W
0`
0#
0d
0h
0{
0C"
0g
0z
0B"
0)
#55
1W
1`
1#
1d
1C"
1{
1h
1B"
1z
1g
b11100 6
b101 N
1)
#56
0W
0`
0#
0d
0h
0{
0C"
0g
0z
0B"
0)
#57
1W
1`
1#
1d
1C"
1{
1h
1B"
1z
1g
b110 N
b11101 6
1)
#58
0W
0`
0#
0d
0h
0{
0C"
0g
0z
0B"
0)
#59
1W
1`
1#
1d
1C"
1{
1h
1B"
1z
1g
b11110 6
1O
b111 N
1)
#60
0W
0`
0#
0d
0h
0{
0C"
0g
0z
0B"
0)
#61
1W
1`
1#
1d
1C"
1{
1h
1B"
1z
1g
0O
b0 N
1M
b11 P
b11111 6
1)
#62
0W
0`
0#
0d
0h
0{
0C"
0g
0z
0B"
0)
#63
1W
1`
1#
1d
1C"
1{
1h
b1 3
1B"
1z
1g
b100000 6
b1 N
1)
#64
0W
0`
0#
0d
0h
0{
0C"
0g
0z
0B"
0)
#65
1W
1`
1#
1d
1C"
1{
1h
1B"
1z
1g
b10 N
b100001 6
1)
#66
0W
0`
0#
0d
0h
0{
0C"
0g
0z
0B"
0)
#67
1W
1`
1#
1d
1C"
1{
1h
1B"
1z
1g
b100010 6
b11 N
1)
#68
0W
0`
0#
0d
0h
0{
0C"
0g
0z
0B"
0)
#69
1W
1`
1#
1d
1C"
1{
1h
1B"
1z
1g
b100 N
b100011 6
1)
#70
0W
0`
0#
0d
0h
0{
0C"
0g
0z
0B"
0)
#71
1W
1`
1#
1d
1C"
1{
1h
1B"
1z
1g
b100100 6
b101 N
1)
#72
0W
0`
0#
0d
0h
0{
0C"
0g
0z
0B"
0)
#73
1W
1`
1#
1d
1C"
1{
1h
1B"
1z
1g
b110 N
b100101 6
1)
#74
0W
0`
0#
0d
0h
0{
0C"
0g
0z
0B"
0)
#75
1W
1`
1#
1d
1C"
1{
1h
b10 S
1B"
1z
1g
b100110 6
1O
b111 N
1)
#76
0W
0`
0#
0d
0h
0{
0C"
0g
0z
0B"
0)
#77
1W
1`
1#
1d
1C"
1{
1h
1B"
1z
1g
b10 R
0O
b0 N
0M
b0 P
b100111 6
1)
#78
0W
0`
0#
0d
0h
0{
0C"
0g
0z
0B"
0)
#79
1W
1`
1#
1d
1C"
1{
1h
1B"
1z
1g
b101000 6
b1 N
1)
#80
0W
0`
0#
0d
0h
0{
0C"
0g
0z
0B"
0)
#81
1W
1`
1#
1d
1C"
1{
1h
1B"
1z
1g
b10 N
b101001 6
1)
#82
0W
0`
0#
0d
0h
0{
0C"
0g
0z
0B"
0)
#83
1W
1`
1#
1d
1C"
1{
1h
1B"
1z
1g
b101010 6
b11 N
1)
#84
0W
0`
0#
0d
0h
0{
0C"
0g
0z
0B"
0)
#85
1W
1`
1#
1d
1C"
1{
1h
1B"
1z
1g
b100 N
b101011 6
1)
#86
0W
0`
0#
0d
0h
0{
0C"
0g
0z
0B"
0)
#87
1W
1`
1#
1d
1C"
1{
1h
1B"
1z
1g
b101100 6
b101 N
1)
#88
0W
0`
0#
0d
0h
0{
0C"
0g
0z
0B"
0)
#89
1W
1`
1#
1d
1C"
1{
1h
1B"
1z
1g
b110 N
b101101 6
1)
#90
0W
0`
0#
0d
0h
0{
0C"
0g
0z
0B"
0)
#91
1W
1`
1#
1d
1C"
1{
1h
b11 S
1B"
1z
1g
b101110 6
1O
b111 N
1)
#92
0W
0`
0#
0d
0h
0{
0C"
0g
0z
0B"
0)
#93
1W
1`
1#
1d
1C"
1{
1h
1B"
1z
1g
b11 R
0O
b0 N
b101111 6
1)
#94
0W
0`
0#
0d
0h
0{
0C"
0g
0z
0B"
0)
#95
1W
1`
1#
1d
1C"
1{
1h
1B"
1z
1g
b110000 6
b1 N
1)
#96
0W
0`
0#
0d
0h
0{
0C"
0g
0z
0B"
0)
#97
1W
1`
1#
1d
1C"
1{
1h
1B"
1z
1g
b10 N
b110001 6
1)
#98
0W
0`
0#
0d
0h
0{
0C"
0g
0z
0B"
0)
#99
1W
1`
1#
1d
1C"
1{
1h
1B"
1z
1g
b110010 6
b11 N
1)
#100
0W
0`
0#
0d
0h
0{
0C"
0g
0z
0B"
0)
#101
1W
1`
1#
1d
1C"
1{
1h
1B"
1z
1g
b100 N
b110011 6
1)
#102
0W
0`
0#
0d
0h
0{
0C"
0g
0z
0B"
0)
#103
1W
1`
1#
1d
1C"
1{
1h
1B"
1z
1g
b110100 6
b101 N
1)
#104
0W
0`
0#
0d
0h
0{
0C"
0g
0z
0B"
0)
#105
1W
1`
1#
1d
1C"
1{
1h
1B"
1z
1g
b110 N
b110101 6
1)
#106
0W
0`
0#
0d
0h
0{
0C"
0g
0z
0B"
0)
#107
1W
1`
1#
1d
1C"
1{
1h
1B"
1z
1g
b110110 6
1O
b111 N
1)
#108
0W
0`
0#
0d
0h
0{
0C"
0g
0z
0B"
0)
#109
1W
1`
1#
1d
1C"
1{
1h
1B"
1z
1g
0O
b0 N
b11111111111111101 Q
1!
19
b110111 6
1)
#110
0W
0`
0#
0d
0h
0{
0C"
0g
0z
0B"
0)
#111
1W
1`
1#
1d
1C"
1{
1h
1B"
1z
1g
b111000 6
1@
b0 =
0!
09
b1 N
1)
#112
0W
0`
0#
0d
0h
0{
0C"
0g
0z
0B"
0)
#113
1W
1`
1#
1d
1C"
1{
1h
1B"
1z
1g
b10 N
b111001 6
1)
#114
0W
0`
0#
0d
0h
0{
0C"
0g
0z
0B"
0)
#115
1W
1`
1#
1d
1C"
1{
1h
1B"
1z
1g
b111010 6
b11 N
1)
#116
0W
0`
0#
0d
0h
0{
0C"
0g
0z
0B"
0)
#117
1W
1`
1#
1d
1C"
1{
1h
1B"
1z
1g
b100 N
b111011 6
1)
#118
0W
0`
0#
0d
0h
0{
0C"
0g
0z
0B"
0)
#119
1W
1`
1#
1d
1C"
1{
1h
1B"
1z
1g
b111100 6
b101 N
1)
#120
0W
0`
0#
0d
0h
0{
0C"
0g
0z
0B"
0)
#121
1W
1`
1#
1d
1C"
1{
1h
1B"
1z
1g
b110 N
b111101 6
1)
#122
0W
0`
0#
0d
0h
0{
0C"
0g
0z
0B"
0)
#123
1W
1`
1#
1d
1C"
1{
1h
1B"
1z
1g
b111110 6
1O
b111 N
1)
#124
0W
0`
0#
0d
0h
0{
0C"
0g
0z
0B"
0)
#125
1W
1`
1#
1d
1C"
1{
1h
1B"
1z
1g
0O
b0 N
b11111111111111100 Q
1!
19
b111111 6
1)
#126
0W
0`
0#
0d
0h
0{
0C"
0g
0z
0B"
0)
#127
1W
1`
1#
1d
1C"
1{
1h
1M"
0k"
b0 L"
b0 V"
b0 `"
b0 j"
b0 4
b0 E"
1.
b10 3
1B"
1z
1g
b1000000 6
b1 ?
0@
b0 2
b0 <
1-
0!
09
b1 N
1)
#128
0W
0`
0#
0d
0h
0{
0C"
0g
0z
0B"
0)
#129
1W
1`
1#
1d
1C"
1{
1h
0.
1B"
1z
1g
b10 N
0-
b1000001 6
1)
#130
0W
0`
0#
0d
0h
0{
0C"
0g
0z
0B"
0)
#131
1W
1`
1#
1d
1C"
1{
1h
b0 '
b0 5
b0 0
b0 K"
1B"
1z
1g
b1000010 6
b11 N
b0 J"
b0 T"
1)
#132
0W
0`
0#
0d
0h
0{
0C"
0g
0z
0B"
0)
#133
1W
1`
1#
1d
1C"
1{
1h
1B"
1z
1g
b100 N
b1000011 6
1)
#134
0W
0`
0#
0d
0h
0{
0C"
0g
0z
0B"
0)
#135
1W
1`
1#
1d
1C"
1{
1h
1B"
1z
1g
b1000100 6
b101 N
1)
#136
0W
0`
0#
0d
0h
0{
0C"
0g
0z
0B"
0)
#137
1W
1`
1#
1d
1C"
1{
1h
1B"
1z
1g
b110 N
b1000101 6
1)
#138
0W
0`
0#
0d
0h
0{
0C"
0g
0z
0B"
0)
#139
1W
1`
1#
1d
1C"
1{
1h
1B"
1z
1g
b1000110 6
1O
b111 N
1)
#140
0W
0`
0#
0d
0h
0{
0C"
0g
0z
0B"
0)
#141
1W
1`
1#
1d
1C"
1{
1h
1B"
1z
1g
0O
b0 N
b11111111111111011 Q
1!
19
b1000111 6
1)
#142
0W
0`
0#
0d
0h
0{
0C"
0g
0z
0B"
0)
#143
1W
1`
1#
1d
1C"
1{
1h
1B"
1z
1g
b1001000 6
1@
0!
09
b1 N
1)
#144
0W
0`
0#
0d
0h
0{
0C"
0g
0z
0B"
0)
#145
1W
1`
1#
1d
1C"
1{
1h
1B"
1z
1g
b10 N
b1001001 6
1)
#146
0W
0`
0#
0d
0h
0{
0C"
0g
0z
0B"
0)
#147
1W
1`
1#
1d
1C"
1{
1h
1B"
1z
1g
b1001010 6
b11 N
1)
#148
0W
0`
0#
0d
0h
0{
0C"
0g
0z
0B"
0)
#149
1W
1`
1#
1d
1C"
1{
1h
1B"
1z
1g
b100 N
b1001011 6
1)
#150
0W
0`
0#
0d
0h
0{
0C"
0g
0z
0B"
0)
#151
1W
1`
1#
1d
1C"
1{
1h
1B"
1z
1g
b1001100 6
b101 N
1)
#152
0W
0`
0#
0d
0h
0{
0C"
0g
0z
0B"
0)
#153
1W
1`
1#
1d
1C"
1{
1h
1B"
1z
1g
b110 N
b1001101 6
1)
#154
0W
0`
0#
0d
0h
0{
0C"
0g
0z
0B"
0)
#155
1W
1`
1#
1d
1C"
1{
1h
1B"
1z
1g
b1001110 6
1O
b111 N
1)
#156
0W
0`
0#
0d
0h
0{
0C"
0g
0z
0B"
0)
#157
1W
1`
1#
1d
1C"
1{
1h
1B"
1z
1g
0O
b0 N
b11111111111111010 Q
1!
19
b1001111 6
1)
#158
0W
0`
0#
0d
0h
0{
0C"
0g
0z
0B"
0)
#159
1W
1`
1#
1d
1C"
1{
1h
b1 L"
b1 V"
b1 `"
b1 j"
b1 4
b1 E"
1.
1B"
1z
1g
b1010000 6
b10 ?
0@
b1 2
b1 <
1-
0!
09
b1 N
1)
#160
0W
0`
0#
0d
0h
0{
0C"
0g
0z
0B"
0)
#161
1W
1`
1#
1d
1C"
1{
1h
0.
bx '
bx 5
bx 0
bx K"
1B"
1z
1g
b10 N
0-
b1010001 6
bx J"
bx T"
1)
#162
0W
0`
0#
0d
0h
0{
0C"
0g
0z
0B"
0)
#163
1W
1`
1#
1d
1C"
1{
1h
b0 '
b0 5
b0 0
b0 K"
1B"
1z
1g
b1010010 6
b11 N
b0 J"
b0 T"
1)
#164
0W
0`
0#
0d
0h
0{
0C"
0g
0z
0B"
0)
#165
1W
1`
1#
1d
1C"
1{
1h
1B"
1z
1g
b100 N
b1010011 6
1)
#166
0W
0`
0#
0d
0h
0{
0C"
0g
0z
0B"
0)
#167
1W
1`
1#
1d
1C"
1{
1h
1B"
1z
1g
b1010100 6
b101 N
1)
#168
0W
0`
0#
0d
0h
0{
0C"
0g
0z
0B"
0)
#169
1W
1`
1#
1d
1C"
1{
1h
1B"
1z
1g
b110 N
b1010101 6
1)
#170
0W
0`
0#
0d
0h
0{
0C"
0g
0z
0B"
0)
#171
1W
1`
1#
1d
1C"
1{
1h
1B"
1z
1g
b1010110 6
1O
b111 N
1)
#172
0W
0`
0#
0d
0h
0{
0C"
0g
0z
0B"
0)
#173
1W
1`
1#
1d
1C"
1{
1h
1B"
1z
1g
0O
b0 N
b11111111111111001 Q
1!
19
b1010111 6
1)
#174
0W
0`
0#
0d
0h
0{
0C"
0g
0z
0B"
0)
#175
1W
1`
1#
1d
1C"
1{
1h
1B"
1z
1g
b1011000 6
1@
0!
09
b1 N
1)
#176
0W
0`
0#
0d
0h
0{
0C"
0g
0z
0B"
0)
#177
1W
1`
1#
1d
1C"
1{
1h
1B"
1z
1g
b10 N
b1011001 6
1)
#178
0W
0`
0#
0d
0h
0{
0C"
0g
0z
0B"
0)
#179
1W
1`
1#
1d
1C"
1{
1h
1B"
1z
1g
b1011010 6
b11 N
1)
#180
0W
0`
0#
0d
0h
0{
0C"
0g
0z
0B"
0)
#181
1W
1`
1#
1d
1C"
1{
1h
1B"
1z
1g
b100 N
b1011011 6
1)
#182
0W
0`
0#
0d
0h
0{
0C"
0g
0z
0B"
0)
#183
1W
1`
1#
1d
1C"
1{
1h
1B"
1z
1g
b1011100 6
b101 N
1)
#184
0W
0`
0#
0d
0h
0{
0C"
0g
0z
0B"
0)
#185
1W
1`
1#
1d
1C"
1{
1h
1B"
1z
1g
b110 N
b1011101 6
1)
#186
0W
0`
0#
0d
0h
0{
0C"
0g
0z
0B"
0)
#187
1W
1`
1#
1d
1C"
1{
1h
1B"
1z
1g
b1011110 6
1O
b111 N
1)
#188
0W
0`
0#
0d
0h
0{
0C"
0g
0z
0B"
0)
#189
1W
1`
1#
1d
1C"
1{
1h
1B"
1z
1g
0O
b0 N
b11111111111111000 Q
1!
19
b1011111 6
1)
#190
0W
0`
0#
0d
0h
0{
0C"
0g
0z
0B"
0)
#191
1W
1`
1#
1d
1C"
1{
1h
b10 L"
b10 V"
b10 `"
b10 j"
b10 4
b10 E"
1.
b11 3
1B"
1z
1g
b1100000 6
b11 ?
0@
b10 2
b10 <
1-
0!
09
b1 N
1)
#192
0W
0`
0#
0d
0h
0{
0C"
0g
0z
0B"
0)
#193
1W
1`
1#
1d
1C"
1{
1h
0.
bx '
bx 5
bx 0
bx K"
1B"
1z
1g
b10 N
0-
b1100001 6
bx J"
bx T"
1)
#194
0W
0`
0#
0d
0h
0{
0C"
0g
0z
0B"
0)
