DDS/out.vcd
$date
	Wed Aug 21 13:13:36 2019
$end
$version
	Icarus Verilog
$end
$timescale
	1ps
$end
$scope module top_tb $end
$var wire 1 ! v $end
$var wire 1 " ss $end
$var wire 1 # sck $end
$var wire 1 $ mosi $end
$var wire 1 % R $end
$var wire 8 & HC [7:0] $end
$var wire 4 ' HB [3:0] $end
$var wire 1 ( G $end
$var wire 1 ) B $end
$var reg 1 * CLK $end
$var reg 4 + S [3:0] $end
$var reg 1 , miso $end
$scope module top_test $end
$var wire 1 * CLK12 $end
$var wire 4 - S [3:0] $end
$var wire 1 . clk $end
$var wire 1 / lock $end
$var wire 1 , miso $end
$var wire 1 0 pllclk $end
$var wire 1 1 wen_w $end
$var wire 1 2 wen $end
$var wire 16 3 wdata [15:0] $end
$var wire 1 ! v $end
$var wire 1 " ss $end
$var wire 16 4 sin [15:0] $end
$var wire 1 # sck $end
$var wire 1 5 pulse_out $end
$var wire 1 $ mosi $end
$var wire 16 6 dout [15:0] $end
$var wire 16 7 cos [15:0] $end
$var wire 1 8 busy $end
$var wire 16 9 addr_w [15:0] $end
$var wire 16 : addr_r [15:0] $end
$var wire 16 ; addr [15:0] $end
$var wire 1 % R $end
$var wire 8 < HC [7:0] $end
$var wire 4 = HB [3:0] $end
$var wire 1 ( G $end
$var wire 1 ) B $end
$var reg 32 > count [31:0] $end
$var reg 1 ? loadlookup $end
$var reg 1 @ rst $end
$var reg 17 A sweep [16:0] $end
$scope module DAC $end
$var wire 1 . clk $end
$var wire 16 B dac_val [15:0] $end
$var wire 1 5 pulse_out $end
$var reg 17 C acc [16:0] $end
$upscope $end
$scope module F2SRAM $end
$var wire 1 * clk $end
$var wire 1 ! d $end
$var wire 1 , miso $end
$var wire 1 @ rst $end
$var wire 1 ? start $end
$var wire 1 " ss $end
$var wire 1 D spi_valid $end
$var wire 1 E spi_rdy $end
$var wire 8 F spi_data [7:0] $end
$var wire 1 # sck $end
$var wire 1 $ mosi $end
$var reg 16 G addr [15:0] $end
$var reg 1 8 busy $end
$var reg 8 H f_byte [7:0] $end
$var reg 1 I laststart $end
$var reg 16 J poscount [15:0] $end
$var reg 1 K second $end
$var reg 24 L spi_addr [23:0] $end
$var reg 1 M spi_go $end
$var reg 17 N spi_len [16:0] $end
$var reg 16 O wdata [15:0] $end
$var reg 1 1 wen $end
$scope module SPI_READER $end
$var wire 24 P addr [23:0] $end
$var wire 1 * clk $end
$var wire 1 M go $end
$var wire 1 Q io_clk $end
$var wire 1 R io_cs_n $end
$var wire 17 S len [16:0] $end
$var wire 1 E rdy $end
$var wire 1 @ rst $end
$var wire 1 , spi_miso $end
$var wire 1 D valid $end
$var wire 1 $ spi_mosi $end
$var wire 1 " spi_cs_n $end
$var wire 1 # spi_clk $end
$var wire 1 T io_mosi $end
$var wire 1 U io_miso $end
$var wire 8 V data [7:0] $end
$var wire 1 W cnt_len_last $end
$var wire 1 X cnt_cmd_last $end
$var reg 3 Y cnt_bit [2:0] $end
$var reg 1 Z cnt_bit_last $end
$var reg 2 [ cnt_cmd [1:0] $end
$var reg 18 \ cnt_len [17:0] $end
$var reg 2 ] fsm_state [1:0] $end
$var reg 2 ^ fsm_state_next [1:0] $end
$var reg 1 _ rdy_i $end
$var reg 32 ` shift_reg [31:0] $end
$var reg 1 D valid_i $end
$scope module iob_clk_I $end
$var wire 1 a CLOCK_ENABLE $end
$var wire 1 b D_IN_0 $end
$var wire 1 c D_IN_1 $end
$var wire 1 Q D_OUT_0 $end
$var wire 1 d D_OUT_1 $end
$var wire 1 e INPUT_CLK $end
$var wire 1 f LATCH_INPUT_VALUE $end
$var wire 1 * OUTPUT_CLK $end
$var wire 1 g OUTPUT_ENABLE $end
$var wire 1 h clken_pulled $end
$var wire 1 # PACKAGE_PIN $end
$var reg 1 i clken_pulled_ri $end
$var reg 1 j clken_pulled_ro $end
$var reg 1 k din_0 $end
$var reg 1 l din_1 $end
$var reg 1 m din_q_0 $end
$var reg 1 n din_q_1 $end
$var reg 1 o dout $end
$var reg 1 p dout_q_0 $end
$var reg 1 q dout_q_1 $end
$var reg 1 r outclk_delayed_1 $end
$var reg 1 s outclk_delayed_2 $end
$var reg 1 t outena_q $end
$scope begin genblk1 $end
$upscope $end
$scope begin genblk3 $end
$upscope $end
$upscope $end
$scope module iob_cs_n_I $end
$var wire 1 u CLOCK_ENABLE $end
$var wire 1 v D_IN_0 $end
$var wire 1 w D_IN_1 $end
$var wire 1 R D_OUT_0 $end
$var wire 1 R D_OUT_1 $end
$var wire 1 x INPUT_CLK $end
$var wire 1 y LATCH_INPUT_VALUE $end
$var wire 1 * OUTPUT_CLK $end
$var wire 1 z OUTPUT_ENABLE $end
$var wire 1 { clken_pulled $end
$var wire 1 " PACKAGE_PIN $end
$var reg 1 | clken_pulled_ri $end
$var reg 1 } clken_pulled_ro $end
$var reg 1 ~ din_0 $end
$var reg 1 !" din_1 $end
$var reg 1 "" din_q_0 $end
$var reg 1 #" din_q_1 $end
$var reg 1 $" dout $end
$var reg 1 %" dout_q_0 $end
$var reg 1 &" dout_q_1 $end
$var reg 1 '" outclk_delayed_1 $end
$var reg 1 (" outclk_delayed_2 $end
$var reg 1 )" outena_q $end
$scope begin genblk1 $end
$upscope $end
$scope begin genblk3 $end
$upscope $end
$upscope $end
$scope module iob_miso_I $end
$var wire 1 *" CLOCK_ENABLE $end
$var wire 1 +" D_IN_1 $end
$var wire 1 ," D_OUT_0 $end
$var wire 1 -" D_OUT_1 $end
$var wire 1 * INPUT_CLK $end
$var wire 1 ." LATCH_INPUT_VALUE $end
$var wire 1 /" OUTPUT_CLK $end
$var wire 1 0" OUTPUT_ENABLE $end
$var wire 1 , PACKAGE_PIN $end
$var wire 1 1" clken_pulled $end
$var wire 1 U D_IN_0 $end
$var reg 1 2" clken_pulled_ri $end
$var reg 1 3" clken_pulled_ro $end
$var reg 1 U din_0 $end
$var reg 1 4" din_1 $end
$var reg 1 5" din_q_0 $end
$var reg 1 6" din_q_1 $end
$var reg 1 7" dout $end
$var reg 1 8" dout_q_0 $end
$var reg 1 9" dout_q_1 $end
$var reg 1 :" outclk_delayed_1 $end
$var reg 1 ;" outclk_delayed_2 $end
$var reg 1 <" outena_q $end
$scope begin genblk1 $end
$upscope $end
$upscope $end
$scope module iob_mosi_I $end
$var wire 1 =" CLOCK_ENABLE $end
$var wire 1 >" D_IN_0 $end
$var wire 1 ?" D_IN_1 $end
$var wire 1 T D_OUT_0 $end
$var wire 1 T D_OUT_1 $end
$var wire 1 @" INPUT_CLK $end
$var wire 1 A" LATCH_INPUT_VALUE $end
$var wire 1 * OUTPUT_CLK $end
$var wire 1 B" OUTPUT_ENABLE $end
$var wire 1 C" clken_pulled $end
$var wire 1 $ PACKAGE_PIN $end
$var reg 1 D" clken_pulled_ri $end
$var reg 1 E" clken_pulled_ro $end
$var reg 1 F" din_0 $end
$var reg 1 G" din_1 $end
$var reg 1 H" din_q_0 $end
$var reg 1 I" din_q_1 $end
$var reg 1 J" dout $end
$var reg 1 K" dout_q_0 $end
$var reg 1 L" dout_q_1 $end
$var reg 1 M" outclk_delayed_1 $end
$var reg 1 N" outclk_delayed_2 $end
$var reg 1 O" outena_q $end
$scope begin genblk1 $end
$upscope $end
$scope begin genblk3 $end
$upscope $end
$upscope $end
$upscope $end
$upscope $end
$scope module PLL $end
$var wire 1 P" BYPASS $end
$var wire 8 Q" DYNAMICDELAY [7:0] $end
$var wire 1 R" EXTFEEDBACK $end
$var wire 1 S" LATCHINPUTVALUE $end
$var wire 1 / LOCK $end
$var wire 1 0 PLLOUTCORE $end
$var wire 1 T" PLLOUTGLOBAL $end
$var wire 1 * REFERENCECLK $end
$var wire 1 U" RESETB $end
$var wire 1 V" SCLK $end
$var wire 1 W" SDI $end
$var wire 1 X" SDO $end
$upscope $end
$scope module SRAM $end
$var wire 16 Y" addr [15:0] $end
$var wire 1 . clk $end
$var wire 16 Z" wdata [15:0] $end
$var wire 1 2 wen $end
$var wire 16 [" rdata_3 [15:0] $end
$var wire 16 \" rdata_2 [15:0] $end
$var wire 16 ]" rdata_1 [15:0] $end
$var wire 16 ^" rdata_0 [15:0] $end
$var wire 16 _" rdata [15:0] $end
$scope module ram00 $end
$var wire 14 `" ADDRESS [13:0] $end
$var wire 1 a" CHIPSELECT $end
$var wire 1 . CLOCK $end
$var wire 16 b" DATAIN [15:0] $end
$var wire 4 c" MASKWREN [3:0] $end
$var wire 1 d" POWEROFF $end
$var wire 1 e" SLEEP $end
$var wire 1 f" STANDBY $end
$var wire 1 2 WREN $end
$var wire 1 g" off $end
$var reg 16 h" DATAOUT [15:0] $end
$var integer 32 i" i [31:0] $end
$upscope $end
$scope module ram01 $end
$var wire 14 j" ADDRESS [13:0] $end
$var wire 1 k" CHIPSELECT $end
$var wire 1 . CLOCK $end
$var wire 16 l" DATAIN [15:0] $end
$var wire 4 m" MASKWREN [3:0] $end
$var wire 1 n" POWEROFF $end
$var wire 1 o" SLEEP $end
$var wire 1 p" STANDBY $end
$var wire 1 2 WREN $end
$var wire 1 q" off $end
$var reg 16 r" DATAOUT [15:0] $end
$var integer 32 s" i [31:0] $end
$upscope $end
$scope module ram10 $end
$var wire 14 t" ADDRESS [13:0] $end
$var wire 1 u" CHIPSELECT $end
$var wire 1 . CLOCK $end
$var wire 16 v" DATAIN [15:0] $end
$var wire 4 w" MASKWREN [3:0] $end
$var wire 1 x" POWEROFF $end
$var wire 1 y" SLEEP $end
$var wire 1 z" STANDBY $end
$var wire 1 2 WREN $end
$var wire 1 {" off $end
$var reg 16 |" DATAOUT [15:0] $end
$var integer 32 }" i [31:0] $end
$upscope $end
$scope module ram11 $end
$var wire 14 ~" ADDRESS [13:0] $end
$var wire 1 !# CHIPSELECT $end
$var wire 1 . CLOCK $end
$var wire 16 "# DATAIN [15:0] $end
$var wire 4 ## MASKWREN [3:0] $end
$var wire 1 $# POWEROFF $end
$var wire 1 %# SLEEP $end
$var wire 1 &# STANDBY $end
$var wire 1 2 WREN $end
$var wire 1 '# off $end
$var reg 16 (# DATAOUT [15:0] $end
$var integer 32 )# i [31:0] $end
$upscope $end
$upscope $end
$scope module dds_core $end
$var wire 1 . clk $end
$var wire 16 *# data [15:0] $end
$var wire 1 +# go $end
$var wire 18 ,# phase [17:0] $end
$var reg 16 -# addr [15:0] $end
$var reg 16 .# cos [15:0] $end
$var reg 1 /# iscos $end
$var reg 1 0# islast $end
$var reg 1 1# lastgo $end
$var reg 16 2# sin [15:0] $end
$upscope $end
$upscope $end
$upscope $end
$enddefinitions $end
#0
$dumpvars
bx 2#
01#
00#
0/#
bx .#
bx -#
b0 ,#
0+#
bx *#
bx )#
bx (#
0'#
0&#
0%#
1$#
b1111 ##
b0 "#
0!#
b0 ~"
bx }"
bx |"
0{"
0z"
0y"
1x"
b1111 w"
b0 v"
0u"
b0 t"
bx s"
bx r"
0q"
0p"
0o"
1n"
b1111 m"
b0 l"
0k"
b0 j"
bx i"
bx h"
0g"
0f"
0e"
1d"
b1111 c"
b0 b"
1a"
b0 `"
bx _"
bx ^"
bx ]"
bx \"
bx ["
b0 Z"
b0 Y"
zX"
zW"
zV"
1U"
zT"
zS"
zR"
bz Q"
0P"
xO"
0N"
0M"
xL"
xK"
xJ"
xI"
xH"
xG"
xF"
xE"
xD"
1C"
zB"
zA"
z@"
x?"
x>"
1="
x<"
z;"
z:"
x9"
x8"
x7"
x6"
x5"
x4"
x3"
x2"
11"
z0"
z/"
z."
z-"
z,"
x+"
1*"
x)"
0("
0'"
x&"
x%"
x$"
x#"
x""
x!"
x~
x}
x|
1{
zz
zy
zx
xw
xv
1u
xt
0s
0r
xq
xp
xo
xn
xm
xl
xk
xj
xi
1h
zg
zf
ze
0d
xc
xb
1a
bx `
x_
bx ^
bx ]
bx \
bx [
xZ
bx Y
xX
xW
bx V
xU
0T
b11111111111111111 S
1R
0Q
b0 P
b0 O
b11111111111111111 N
0M
b0 L
0K
b0 J
0I
bx H
b0 G
bx F
xE
xD
b0 C
bx B
b0 A
0@
0?
b0 >
b0zzz =
bx <
b0 ;
bx :
b0 9
08
bx 7
bx 6
05
bx 4
b0 3
02
01
z0
z/
0.
b0 -
0,
b0 +
0*
1)
x(
b0zzz '
bx &
1%
x$
x#
x"
x!
$end
#1000
0>"
0F"
1v
1~
0b
0k
0$
0J"
1"
1$"
0#
0o
1N"
1("
1s
bxzzz '
bxzzz =
x5
0U
b0 ^
b0 F
b0 V
bx C
b1 >
1@
1M"
1'"
1r
1E"
0K"
zO"
12"
05"
1}
1%"
z)"
1j
0p
zt
b0 ]
b10101011000000000000000000000000 `
b0 Y
0E
0_
1.
1*
#2000
0s
0("
0N"
0+"
04"
0r
0'"
0M"
0q
1&"
06"
0L"
0.
0*
#3000
1N"
1("
1s
b10 >
1M"
1'"
1r
0!
0D
1E
1_
b1010110000000000000000000000000 `
1.
1*
#4000
0s
0("
0N"
0r
0'"
0M"
0.
0*
#5000
1N"
1("
1s
b11 >
1M"
1'"
1r
b10101100000000000000000000000000 `
1.
1*
#6000
0s
0("
0N"
0r
0'"
0M"
0.
0*
#7000
1N"
1("
1s
b100 >
1M"
1'"
1r
b1011000000000000000000000000000 `
1.
1*
#8000
0s
0("
0N"
0r
0'"
0M"
0.
0*
#9000
1N"
1("
1s
b101 >
1M"
1'"
1r
b10110000000000000000000000000000 `
1.
1*
#10000
0s
0("
0N"
0r
0'"
0M"
0.
0*
b11 +
b11 -
#11000
1N"
1("
1s
b110 >
1M"
1'"
1r
b1100000000000000000000000000000 `
1.
1*
#12000
0s
0("
0N"
0r
0'"
0M"
0.
0*
#13000
1N"
1("
1s
b111 >
1M"
1'"
1r
b11000000000000000000000000000000 `
1.
1*
#14000
0s
0("
0N"
0r
0'"
0M"
0.
0*
#15000
1N"
1("
1s
b1000 >
1M"
1'"
1r
b10000000000000000000000000000000 `
1.
1*
#16000
0s
0("
0N"
0r
0'"
0M"
0.
0*
#17000
1N"
1("
1s
b1001 >
1M"
1'"
1r
b0 `
1.
1*
#18000
0s
0("
0N"
0r
0'"
0M"
0.
0*
#19000
1N"
1("
1s
b1010 >
1M"
1'"
1r
1.
1*
#20000
0s
0("
0N"
0r
0'"
0M"
0.
0*
#21000
1N"
1("
1s
b1011 >
1M"
1'"
1r
1.
1*
#22000
0s
0("
0N"
0r
0'"
0M"
0.
0*
#23000
1N"
1("
1s
b1100 >
1M"
1'"
1r
1.
1*
#24000
0s
0("
0N"
0r
0'"
0M"
0.
0*
#25000
1N"
1("
1s
b1101 >
1M"
1'"
1r
1.
1*
#26000
0s
0("
0N"
0r
0'"
0M"
0.
0*
#27000
1N"
1("
1s
b1110 >
1M"
1'"
1r
1.
1*
#28000
0s
0("
0N"
0r
0'"
0M"
0.
0*
#29000
1N"
1("
1s
b1111 >
1M"
1'"
1r
1.
1*
#30000
0s
0("
0N"
0r
0'"
0M"
0.
0*
#31000
1N"
1("
1s
1+#
b10000 >
1M"
1'"
1r
1.
1*
#32000
0s
0("
0N"
0r
0'"
0M"
0.
0*
#33000
1N"
1("
1s
b0 :
b0 -#
1/#
11#
b10001 >
1M"
1'"
1r
1.
1*
#34000
0s
0("
0N"
0r
0'"
0M"
0.
0*
#35000
1N"
1("
1s
b10010 >
b1111111111111111 :
b1111111111111111 -#
0/#
10#
1M"
1'"
1r
1.
1*
#36000
0s
0("
0N"
0r
0'"
0M"
0.
0*
#37000
1N"
1("
1s
b0 :
b0 -#
00#
b10011 >
1M"
1'"
1r
1.
1*
#38000
0s
0("
0N"
0r
0'"
0M"
0.
0*
#39000
1N"
1("
1s
b10100 >
1M"
1'"
1r
1.
1*
#40000
0s
0("
0N"
0r
0'"
0M"
0.
0*
#41000
1N"
1("
1s
b10101 >
1M"
1'"
1r
1.
1*
#42000
0s
0("
0N"
0r
0'"
0M"
0.
0*
#43000
1N"
1("
1s
b10110 >
1M"
1'"
1r
1.
1*
#44000
0s
0("
0N"
0r
0'"
0M"
0.
0*
#45000
1N"
1("
1s
b10111 >
1M"
1'"
1r
1.
1*
#46000
0s
0("
0N"
0r
0'"
0M"
0.
0*
#47000
1N"
1("
1s
b11000 >
1M"
1'"
1r
1.
1*
#48000
0s
0("
0N"
0r
0'"
0M"
0.
0*
#49000
1N"
1("
1s
b11001 >
1M"
1'"
1r
1.
1*
#50000
0s
0("
0N"
0r
0'"
0M"
0.
0*
#51000
1N"
1("
1s
b11010 >
1M"
1'"
1r
1.
1*
#52000
0s
0("
0N"
0r
0'"
0M"
0.
0*
#53000
1N"
1("
1s
b11011 >
1M"
1'"
1r
1.
1*
#54000
0s
0("
0N"
0r
0'"
0M"
0.
0*
#55000
1N"
1("
1s
b11100 >
1M"
1'"
1r
1.
1*
#56000
0s
0("
0N"
0r
0'"
0M"
0.
0*
#57000
1N"
1("
1s
b11101 >
1M"
1'"
1r
1.
1*
#58000
0s
0("
0N"
0r
0'"
0M"
0.
0*
#59000
1N"
1("
1s
b11110 >
1M"
1'"
1r
1.
1*
#60000
0s
0("
0N"
0r
0'"
0M"
0.
0*
#61000
1N"
1("
1s
b11111 >
1M"
1'"
1r
1.
1*
#62000
0s
0("
0N"
0r
0'"
0M"
0.
0*
#63000
1N"
1("
1s
b1 `"
b1 j"
b1 t"
b1 ~"
b1 ;
b1 Y"
b1000000000000 ,#
0+#
b100000 >
1M"
1'"
1r
1.
1*
#64000
0s
0("
0N"
0r
0'"
0M"
0.
0*
#65000
1N"
1("
1s
01#
b100001 >
1M"
1'"
1r
1.
1*
#66000
0s
0("
0N"
0r
0'"
0M"
0.
0*
#67000
1N"
1("
1s
b100010 >
1M"
1'"
1r
1.
1*
#68000
0s
0("
0N"
0r
0'"
0M"
0.
0*
#69000
1N"
1("
1s
b100011 >
1M"
1'"
1r
1.
1*
#70000
0s
0("
0N"
0r
0'"
0M"
0.
0*
#71000
1N"
1("
1s
b100100 >
1M"
1'"
1r
1.
1*
#72000
0s
0("
0N"
0r
0'"
0M"
0.
0*
#73000
1N"
1("
1s
b100101 >
1M"
1'"
1r
1.
1*
#74000
0s
0("
0N"
0r
0'"
0M"
0.
0*
#75000
1N"
1("
1s
b100110 >
1M"
1'"
1r
1.
1*
#76000
0s
0("
0N"
0r
0'"
0M"
0.
0*
#77000
1N"
1("
1s
b100111 >
1M"
1'"
1r
1.
1*
#78000
0s
0("
0N"
0r
0'"
0M"
0.
0*
#79000
1N"
1("
1s
b101000 >
1M"
1'"
1r
1.
1*
#80000
0s
0("
0N"
0r
0'"
0M"
0.
0*
#81000
1N"
1("
1s
b101001 >
1M"
1'"
1r
1.
1*
#82000
0s
0("
0N"
0r
0'"
0M"
0.
0*
#83000
1N"
1("
1s
b101010 >
1M"
1'"
1r
1.
1*
#84000
0s
0("
0N"
0r
0'"
0M"
0.
0*
#85000
1N"
1("
1s
b101011 >
1M"
1'"
1r
1.
1*
#86000
0s
0("
0N"
0r
0'"
0M"
0.
0*
#87000
1N"
1("
1s
b101100 >
1M"
1'"
1r
1.
1*
#88000
0s
0("
0N"
0r
0'"
0M"
0.
0*
#89000
1N"
1("
1s
b101101 >
1M"
1'"
1r
1.
1*
#90000
0s
0("
0N"
0r
0'"
0M"
0.
0*
#91000
1N"
1("
1s
b101110 >
1M"
1'"
1r
1.
1*
#92000
0s
0("
0N"
0r
0'"
0M"
0.
0*
#93000
1N"
1("
1s
b101111 >
1M"
1'"
1r
1.
1*
#94000
0s
0("
0N"
0r
0'"
0M"
0.
0*
#95000
1N"
1("
1s
1+#
b110000 >
1M"
1'"
1r
1.
1*
#96000
0s
0("
0N"
0r
0'"
0M"
0.
0*
#97000
1N"
1("
1s
b1000000000000 :
b1000000000000 -#
1/#
11#
b110001 >
1M"
1'"
1r
1.
1*
#98000
0s
0("
0N"
0r
0'"
0M"
0.
0*
#99000
1N"
1("
1s
b110010 >
b1110111111111111 :
b1110111111111111 -#
0/#
10#
1M"
1'"
1r
1.
1*
#100000
0s
0("
0N"
0r
0'"
0M"
0.
0*
#101000
1N"
1("
1s
b0 :
b0 -#
00#
b110011 >
1M"
1'"
1r
1.
1*
#102000
0s
0("
0N"
0r
0'"
0M"
0.
0*
#103000
1N"
1("
1s
b110100 >
1M"
1'"
1r
1.
1*
#104000
0s
0("
0N"
0r
0'"
0M"
0.
0*
#105000
1N"
1("
1s
b110101 >
1M"
1'"
1r
1.
1*
#106000
0s
0("
0N"
0r
0'"
0M"
0.
0*
#107000
1N"
1("
1s
b110110 >
1M"
1'"
1r
1.
1*
#108000
0s
0("
0N"
0r
0'"
0M"
0.
0*
#109000
1N"
1("
1s
b110111 >
1M"
1'"
1r
1.
1*
#110000
0s
0("
0N"
0r
0'"
0M"
0.
0*
#111000
1N"
1("
1s
b111000 >
1M"
1'"
1r
1.
1*
#112000
0s
0("
0N"
0r
0'"
0M"
0.
0*
#113000
1N"
1("
1s
b111001 >
1M"
1'"
1r
1.
1*
#114000
0s
0("
0N"
0r
0'"
0M"
0.
0*
#115000
1N"
1("
1s
b111010 >
1M"
1'"
1r
1.
1*
#116000
0s
0("
0N"
0r
0'"
0M"
0.
0*
#117000
1N"
1("
1s
b111011 >
1M"
1'"
1r
1.
1*
#118000
0s
0("
0N"
0r
0'"
0M"
0.
0*
#119000
1N"
1("
1s
b111100 >
1M"
1'"
1r
1.
1*
#120000
0s
0("
0N"
0r
0'"
0M"
0.
0*
#121000
1N"
1("
1s
b111101 >
1M"
1'"
1r
1.
1*
#122000
0s
0("
0N"
0r
0'"
0M"
0.
0*
#123000
1N"
1("
1s
b111110 >
1M"
1'"
1r
1.
1*
#124000
0s
0("
0N"
0r
0'"
0M"
0.
0*
#125000
1N"
1("
1s
b111111 >
1M"
1'"
1r
1.
1*
#126000
0s
0("
0N"
0r
0'"
0M"
0.
0*
#127000
1N"
1("
1s
b10 `"
b10 j"
b10 t"
b10 ~"
b10 ;
b10 Y"
b10000000000000 ,#
0+#
b1000000 >
1M"
1'"
1r
1.
1*
#128000
0s
0("
0N"
0r
0'"
0M"
0.
0*
#129000
1N"
1("
1s
01#
b1000001 >
1M"
1'"
1r
1.
1*
#130000
0s
0("
0N"
0r
0'"
0M"
0.
0*
#131000
1N"
1("
1s
b1000010 >
1M"
1'"
1r
1.
1*
#132000
0s
0("
0N"
0r
0'"
0M"
0.
0*
#133000
1N"
1("
1s
b1000011 >
1M"
1'"
1r
1.
1*
#134000
0s
0("
0N"
0r
0'"
0M"
0.
0*
#135000
1N"
1("
1s
b1000100 >
1M"
1'"
1r
1.
1*
#136000
0s
0("
0N"
0r
0'"
0M"
0.
0*
#137000
1N"
1("
1s
b1000101 >
1M"
1'"
1r
1.
1*
#138000
0s
0("
0N"
0r
0'"
0M"
0.
0*
#139000
1N"
1("
1s
b1000110 >
1M"
1'"
1r
1.
1*
#140000
0s
0("
0N"
0r
0'"
0M"
0.
0*
#141000
1N"
1("
1s
b1000111 >
1M"
1'"
1r
1.
1*
#142000
0s
0("
0N"
0r
0'"
0M"
0.
0*
#143000
1N"
1("
1s
b1001000 >
1M"
1'"
1r
1.
1*
#144000
0s
0("
0N"
0r
0'"
0M"
0.
0*
#145000
1N"
1("
1s
b1001001 >
1M"
1'"
1r
1.
1*
#146000
0s
0("
0N"
0r
0'"
0M"
0.
0*
#147000
1N"
1("
1s
b1001010 >
1M"
1'"
1r
1.
1*
#148000
0s
0("
0N"
0r
0'"
0M"
0.
0*
#149000
1N"
1("
1s
b1001011 >
1M"
1'"
1r
1.
1*
#150000
0s
0("
0N"
0r
0'"
0M"
0.
0*
#151000
1N"
1("
1s
b1001100 >
1M"
1'"
1r
1.
1*
#152000
0s
0("
0N"
0r
0'"
0M"
0.
0*
#153000
1N"
1("
1s
b1001101 >
1M"
1'"
1r
1.
1*
#154000
0s
0("
0N"
0r
0'"
0M"
0.
0*
#155000
1N"
1("
1s
b1001110 >
1M"
1'"
1r
1.
1*
#156000
0s
0("
0N"
0r
0'"
0M"
0.
0*
#157000
1N"
1("
1s
b1001111 >
1M"
1'"
1r
1.
1*
#158000
0s
0("
0N"
0r
0'"
0M"
0.
0*
#159000
1N"
1("
1s
1+#
b1010000 >
1M"
1'"
1r
1.
1*
#160000
0s
0("
0N"
0r
0'"
0M"
0.
0*
#161000
1N"
1("
1s
b10000000000000 :
b10000000000000 -#
1/#
11#
b1010001 >
1M"
1'"
1r
1.
1*
#162000
0s
0("
0N"
0r
0'"
0M"
0.
0*
#163000
1N"
1("
1s
b1010010 >
b1101111111111111 :
b1101111111111111 -#
0/#
10#
1M"
1'"
1r
1.
1*
#164000
0s
0("
0N"
0r
0'"
0M"
0.
0*
#165000
1N"
1("
1s
b0 :
b0 -#
00#
b1010011 >
1M"
1'"
1r
1.
1*
#166000
0s
0("
0N"
0r
0'"
0M"
0.
0*
#167000
1N"
1("
1s
b1010100 >
1M"
1'"
1r
1.
1*
#168000
0s
0("
0N"
0r
0'"
0M"
0.
0*
#169000
1N"
1("
1s
b1010101 >
1M"
1'"
1r
1.
1*
#170000
0s
0("
0N"
0r
0'"
0M"
0.
0*
#171000
1N"
1("
1s
b1010110 >
1M"
1'"
1r
1.
1*
#172000
0s
0("
0N"
0r
0'"
0M"
0.
0*
#173000
1N"
1("
1s
b1010111 >
1M"
1'"
1r
1.
1*
#174000
0s
0("
0N"
0r
0'"
0M"
0.
0*
#175000
1N"
1("
1s
b1011000 >
1M"
1'"
1r
1.
1*
#176000
0s
0("
0N"
0r
0'"
0M"
0.
0*
#177000
1N"
1("
1s
b1011001 >
1M"
1'"
1r
1.
1*
#178000
0s
0("
0N"
0r
0'"
0M"
0.
0*
#179000
1N"
1("
1s
b1011010 >
1M"
1'"
1r
1.
1*
#180000
0s
0("
0N"
0r
0'"
0M"
0.
0*
#181000
1N"
1("
1s
b1011011 >
1M"
1'"
1r
1.
1*
#182000
0s
0("
0N"
0r
0'"
0M"
0.
0*
#183000
1N"
1("
1s
b1011100 >
1M"
1'"
1r
1.
1*
#184000
0s
0("
0N"
0r
0'"
0M"
0.
0*
#185000
1N"
1("
1s
b1011101 >
1M"
1'"
1r
1.
1*
#186000
0s
0("
0N"
0r
0'"
0M"
0.
0*
#187000
1N"
1("
1s
b1011110 >
1M"
1'"
1r
1.
1*
#188000
0s
0("
0N"
0r
0'"
0M"
0.
0*
#189000
1N"
1("
1s
b1011111 >
1M"
1'"
1r
1.
1*
#190000
0s
0("
0N"
0r
0'"
0M"
0.
0*
#191000
1N"
1("
1s
b11 `"
b11 j"
b11 t"
b11 ~"
b11 ;
b11 Y"
b11000000000000 ,#
0+#
b1100000 >
1M"
1'"
1r
1.
1*
#192000
0s
0("
0N"
0r
0'"
0M"
0.
0*
#193000
1N"
1("
1s
01#
b1100001 >
1M"
1'"
1r
1.
1*
#194000
0s
0("
0N"
0r
0'"
0M"
0.
0*
#195000
1N"
1("
1s
b1100010 >
1M"
1'"
1r
1.
1*
#196000
0s
0("
0N"
0r
0'"
0M"
0.
0*
#197000
1N"
1("
1s
b1100011 >
1M"
1'"
1r
1.
1*
#198000
0s
0("
0N"
0r
0'"
0M"
0.
0*
#199000
1N"
1("
1s
b1100100 >
1M"
1'"
1r
1.
1*
#200000
0s
0("
0N"
0r
0'"
0M"
0.
0*
#201000
1N"
1("
1s
b1100101 >
1M"
1'"
1r
1.
1*
#202000
0s
0("
0N"
0r
0'"
0M"
0.
0*
#203000
1N"
1("
1s
b1100110 >
1M"
1'"
1r
1.
1*
#204000
0s
0("
0N"
0r
0'"
0M"
0.
0*
#205000
1N"
1("
1s
b1100111 >
1M"
1'"
1r
1.
1*
#206000
0s
0("
0N"
0r
0'"
0M"
0.
0*
#207000
1N"
1("
1s
b1101000 >
1M"
1'"
1r
1.
1*
#208000
0s
0("
0N"
0r
0'"
0M"
0.
0*
#209000
1N"
1("
1s
b1101001 >
1M"
1'"
1r
1.
1*
#210000
0s
0("
0N"
0r
0'"
0M"
0.
0*
#211000
1N"
1("
1s
b1101010 >
1M"
1'"
1r
1.
1*
#212000
0s
0("
0N"
0r
0'"
0M"
0.
0*
#213000
1N"
1("
1s
b1101011 >
1M"
1'"
1r
1.
1*
#214000
0s
0("
0N"
0r
0'"
0M"
0.
0*
#215000
1N"
1("
1s
b1101100 >
1M"
1'"
1r
1.
1*
#216000
0s
0("
0N"
0r
0'"
0M"
0.
0*
#217000
1N"
1("
1s
b1101101 >
1M"
1'"
1r
1.
1*
#218000
0s
0("
0N"
0r
0'"
0M"
0.
0*
#219000
1N"
1("
1s
b1101110 >
1M"
1'"
1r
1.
1*
#220000
0s
0("
0N"
0r
0'"
0M"
0.
0*
#221000
1N"
1("
1s
b1101111 >
1M"
1'"
1r
1.
1*
#222000
0s
0("
0N"
0r
0'"
0M"
0.
0*
#223000
1N"
1("
1s
1+#
b1110000 >
1M"
1'"
1r
1.
1*
#224000
0s
0("
0N"
0r
0'"
0M"
0.
0*
#225000
1N"
1("
1s
b11000000000000 :
b11000000000000 -#
1/#
11#
b1110001 >
1M"
1'"
1r
1.
1*
#226000
0s
0("
0N"
0r
0'"
0M"
0.
0*
#227000
1N"
1("
1s
b1110010 >
b1100111111111111 :
b1100111111111111 -#
0/#
10#
1M"
1'"
1r
1.
1*
#228000
0s
0("
0N"
0r
0'"
0M"
0.
0*
#229000
1N"
1("
1s
b0 :
b0 -#
00#
b1110011 >
1M"
1'"
1r
1.
1*
#230000
0s
0("
0N"
0r
0'"
0M"
0.
0*
#231000
1N"
1("
1s
b1110100 >
1M"
1'"
1r
1.
1*
#232000
0s
0("
0N"
0r
0'"
0M"
0.
0*
#233000
1N"
1("
1s
b1110101 >
1M"
1'"
1r
1.
1*
#234000
0s
0("
0N"
0r
0'"
0M"
0.
0*
#235000
1N"
1("
1s
b1110110 >
1M"
1'"
1r
1.
1*
